{
    "nodes" : [
        {"id":0,"x": 10, "y": 50},
        {"id":1,"x": 70, "y": 10},
        {"id":2,"x": 140, "y": 50}
    ],

    "links": [
        {"source":0, "target": 1},
        {"source": 1, "target": 2}
    ]

}
